{
  "result": {
    "item": "heroesexpansion:cape"
  },
  "pattern": [
    "XSX",
    "XXX",
    "XXX"
  ],
  "conditions": [
    {
      "item": "heroesexpansion:cape",
      "type": "minecraft:item_exists"
    },
    {
      "item": "minecraft:leather",
      "type": "minecraft:item_exists"
    },
    {
      "item": "minecraft:string",
      "type": "minecraft:item_exists"
    }
  ],
  "type": "minecraft:crafting_shaped",
  "key": {
    "S": {
      "item": "minecraft:string"
    },
    "X": {
      "item": "minecraft:leather"
    }
  }
}