{
	"parent": "builtin/entity",
    "display": {
        "gui": {
            "rotation": [ -78, 44, 150 ],
            "translation": [ 0, 0.5, 0],
            "scale":[ 0.7, 0.7, 0.7 ]
        },
        "ground": {
            "rotation": [ 0, 0, 0 ],
            "translation": [ 0, 0, 0],
            "scale":[ 1, 1, 1 ]
        },
        "head": {
            "rotation": [ 0, 0, 0 ],
            "translation": [ 0, 0, 0],
            "scale":[ 1, 1, 1 ]
        },
        "fixed": {
            "rotation": [ -90, 0, 0 ],
            "translation": [ 0, 0.5, -1.5],
            "scale":[ 0.7, 0.7, 0.7 ]
        },
        "thirdperson_righthand": {
            "rotation": [ 0, -175, 90 ],
            "translation": [ 4, -2, 2 ],
            "scale":[ 0.7, 0.7, 0.7 ]
        },
		"thirdperson_lefthand": {
            "rotation": [ 0, -175, 90 ],
            "translation": [ 4, -2, 2 ],
            "scale":[ 0.7, 0.7, 0.7 ]
        },
        "firstperson_righthand": {
            "rotation": [ 0, -120, 90 ],
            "translation": [ 3.75, 2.75, 0.75 ],
            "scale":[ 1, 1, 1 ]
        },
        "firstperson_lefthand": {
            "rotation": [ 0, -120, 90 ],
            "translation": [ 3.75, 2.75, 0.75 ],
            "scale":[ 1, 1, 1 ]
        }
    }
}
